Learning Extension of Exposures with Neural Networks in R
…
tbl_expense_fee

Homeowners - Rate Tables

The rate tables are defined as follows. Note the amou

## $tbl_base
## # A tibble: 1 x 2
##   peril      value
##   <chr>      <dbl>
## 1 all_perils   500
## 
## $tbl_aoi
## # A tibble: 29 x 2
##      aoi value
##    <dbl> <dbl>
##  1    80  0.56
##  2    95  0.63
##  3   110  0.69
##  4   125  0.75
##  5   140  0.81
##  6   155  0.86
##  7   170  0.91
##  8   185  0.96
##  9   200  1   
## 10   215  1.04
## # ... with 19 more rows
## 
## $tbl_territory
…
# For each table, draw n_draw random numbers.
uniform_dist_iid <-
  ho_rate_tables %>% 
  lapply(
    function(x) {
      nrow(x) %>% 
      sample(n_draw, replace = TRUE) %>% 
      lapply(function(y) x[y, -ncol(x)]) %>% bind_rows}) %>% 
  bind_cols %>% 
  cbind(policy_number = 1:nrow(.) %>% str_pad(nchar(n_draw), pad = "0"), .)

uniform_dist_iid %>% as_tibble

## # A tibble: 10,000 x 12
##    policy_number peril   aoi territory protection_class
##    <fct>         <chr> <dbl>     <dbl>            <dbl>
##  1 00001         all_~   335         3                1
##  2 00002         all_~   425         2                7
##  3 00003         all_~   455         1               10
##  4 00004         all_~   125         5                8
##  5 00005         all_~   395         5                3
##  6 00006         all_~   470         1                2
##  7 00007         all_~   380         3                4
##  8 00008         all_~    95         4                9
##  9 00009         all_~   260         1                7
## 10 00010         all_~   260         2                8
## # ... with 9,990 more rows, and 7 more variables:
## #   construction_type <chr>, uw_tier <chr>,
## #   deductible <dbl>, credit <chr>,
## #   jewelry_limit <dbl>, limit_liability_medpay <chr>,
## #   form <chr>
…
