Learning Extension of Exposures with Neural Networks in R
…
tbl_expense_fee

Homeowners - Rate Tables

The rate tables are defined as follows. Note the amou

## $tbl_base
## # A tibble: 1 x 2
##   peril      value
##   <chr>      <dbl>
## 1 all_perils   500
## 
## $tbl_aoi
## # A tibble: 29 x 2
##      aoi value
##    <dbl> <dbl>
##  1    80  0.56
##  2    95  0.63
##  3   110  0.69
##  4   125  0.75
##  5   140  0.81
##  6   155  0.86
##  7   170  0.91
##  8   185  0.96
##  9   200  1   
## 10   215  1.04
## # ... with 19 more rows
## 
## $tbl_territory
…
# For each table, draw n_draw random numbers.
uniform_dist_iid <-
  ho_rate_tables %>% 
  lapply(
    function(x) {
      nrow(x) %>% 
      sample(n_draw, replace = TRUE) %>% 
      lapply(function(y) x[y, -ncol(x)]) %>% bind_rows}) %>% 
  bind_cols %>% 
  cbind(policy_number = 1:nrow(.) %>% str_pad(nchar(n_draw), pad = "0"), .)

uniform_dist_iid %>% as_tibble

## # A tibble: 10,000 x 12
##    policy_number peril   aoi territory protection_class construction_ty~
##    <fct>         <chr> <dbl>     <dbl>            <dbl> <chr>           
##  1 00001         all_~   410         3               10 masonry         
##  2 00002         all_~   335         1                8 masonry         
##  3 00003         all_~   470         3                5 frame           
##  4 00004         all_~   320         3                2 masonry         
##  5 00005         all_~   185         1                4 frame           
##  6 00006         all_~   185         5                9 frame           
##  7 00007         all_~   155         3                9 masonry         
##  8 00008         all_~   140         1                1 frame           
##  9 00009         all_~   455         3                3 frame           
## 10 00010         all_~   410         4                5 masonry         
## # ... with 9,990 more rows, and 6 more variables: uw_tier <chr>,
## #   deductible <dbl>, credit <chr>, jewelry_limit <dbl>,
## #   limit_liability_medpay <chr>, form <chr>
…
