3.1 Uniformly Distributed, Independent Mix, with Exact Features | Learning Extension of Exposures with Neural Networks in R
…
# For each table, draw n_draw random numbers.
ho_uniform_iid <-
  ho_rate_tables %>% 
  lapply(
    function(x) {
      nrow(x) %>% 
      sample(n_draw, replace = TRUE) %>% 
      lapply(function(y) x[y, -ncol(x)]) %>% bind_rows}) %>% 
  bind_cols %>% 
  cbind(policy_number = 1:nrow(.) %>% str_pad(nchar(n_draw), pad = "0"), .)

ho_uniform_iid %>% as_tibble

## # A tibble: 10,000 x 12
##    policy_number peril   aoi territory protection_class
##    <fct>         <chr> <dbl>     <dbl>            <dbl>
##  1 00001         all_~   140         3               10
##  2 00002         all_~   125         1                7
##  3 00003         all_~    80         5                6
##  4 00004         all_~   290         4                3
##  5 00005         all_~   290         4                1
##  6 00006         all_~   170         3                4
##  7 00007         all_~   230         2                2
##  8 00008         all_~   290         1                8
##  9 00009         all_~   140         1                6
## 10 00010         all_~    95         3                9
## # ... with 9,990 more rows, and 7 more variables:
## #   construction_type <chr>, uw_tier <chr>,
## #   deductible <dbl>, credit <chr>,
## #   jewelry_limit <dbl>, limit_liability_medpay <chr>,
## #   form <chr>
…
